…
``` r
(tsne_tbl = example_sce %>% 
  export_reducedDim(type = "TSNE", 
                    feature = c("Gene_0001", "Gene_0002")))
```

    ## Warning: Column `cell_name` joining character vector and factor, coercing into
    ## character vector

    ## # A tibble: 400 x 8
    ##    cell_name     V1    V2 Mutation_Status Cell_Cycle Treatment gene_name value
    ##    <chr>      <dbl> <dbl> <chr>           <chr>      <chr>     <fct>     <dbl>
    ##  1 Cell_001   1.11   2.56 positive        G2M        treat2    Gene_0001  8.74
    ##  2 Cell_001   1.11   2.56 positive        G2M        treat2    Gene_0002  0   
    ##  3 Cell_002   1.04  -1.19 positive        G1         treat1    Gene_0001  9.47
    ##  4 Cell_002   1.04  -1.19 positive        G1         treat1    Gene_0002  3.02
    ##  5 Cell_003  -0.351 -2.43 positive        G1         treat2    Gene_0001  9.54
    ##  6 Cell_003  -0.351 -2.43 positive        G1         treat2    Gene_0002  0   
    ##  7 Cell_004  -0.387 -1.37 positive        G1         treat2    Gene_0001  9.75
    ##  8 Cell_004  -0.387 -1.37 positive        G1         treat2    Gene_0002  0   
    ##  9 Cell_005   0.335 -2.93 negative        G0         treat2    Gene_0001  7.50
    ## 10 Cell_005   0.335 -2.93 negative        G0         treat2    Gene_0002  0   
    ## # … with 390 more rows
…
